{
  "id" : "30ecdab7-2887-44cf-9091-590b882e292b",
  "name" : "autoshippersettingsservice_api_autoshipper_schedules_country_1",
  "request" : {
    "url" : "/autoshippersettingsservice/api/autoshipper/schedules/country/1",
    "method" : "GET"
  },
  "response" : {
    "status" : 200,
    "body" : "{\"schedules\":[{\"scheduleId\":1,\"description\":\"AUTOSHIP 1\",\"scheduleType\":3,\"dayOfMonth\":1,\"isActive\":\"T\",\"countryId\":1,\"lastRunDate\":\"2021-03-01T06:47:35\",\"autoShipperNextRunDate\":\"2021-01-01T00:00:00\"},{\"scheduleId\":2,\"description\":\"AUTOSHIP 2\",\"scheduleType\":3,\"dayOfMonth\":2,\"isActive\":\"T\",\"countryId\":1,\"lastRunDate\":\"2021-03-02T04:09:53\",\"autoShipperNextRunDate\":\"2021-01-02T00:00:00\"},{\"scheduleId\":3,\"description\":\"AUTOSHIP 3\",\"scheduleType\":3,\"dayOfMonth\":3,\"isActive\":\"T\",\"countryId\":1,\"lastRunDate\":\"2021-03-03T05:18:22\",\"autoShipperNextRunDate\":\"2021-01-03T00:00:00\"},{\"scheduleId\":4,\"description\":\"AUTOSHIP 4\",\"scheduleType\":3,\"dayOfMonth\":4,\"isActive\":\"T\",\"countryId\":1,\"lastRunDate\":\"2021-03-04T02:51:34\",\"autoShipperNextRunDate\":\"2021-01-04T00:00:00\"},{\"scheduleId\":5,\"description\":\"AUTOSHIP 5\",\"scheduleType\":3,\"dayOfMonth\":5,\"isActive\":\"T\",\"countryId\":1,\"lastRunDate\":\"2021-03-05T07:16:57\",\"autoShipperNextRunDate\":\"2021-01-05T00:00:00\"},{\"scheduleId\":6,\"description\":\"AUTOSHIP 6\",\"scheduleType\":3,\"dayOfMonth\":6,\"isActive\":\"T\",\"countryId\":1,\"lastRunDate\":\"2021-03-05T05:50:38\",\"autoShipperNextRunDate\":\"2021-01-06T00:00:00\"},{\"scheduleId\":7,\"description\":\"AUTOSHIP 7\",\"scheduleType\":3,\"dayOfMonth\":7,\"isActive\":\"T\",\"countryId\":1,\"lastRunDate\":\"2021-03-08T13:20:01\",\"autoShipperNextRunDate\":\"2021-01-07T00:00:00\"},{\"scheduleId\":8,\"description\":\"AUTOSHIP 8\",\"scheduleType\":3,\"dayOfMonth\":8,\"isActive\":\"T\",\"countryId\":1,\"lastRunDate\":\"2021-03-08T09:24:12\",\"autoShipperNextRunDate\":\"2021-01-08T00:00:00\"},{\"scheduleId\":9,\"description\":\"AUTOSHIP 9\",\"scheduleType\":3,\"dayOfMonth\":9,\"isActive\":\"T\",\"countryId\":1,\"lastRunDate\":\"2021-03-09T05:53:52\",\"autoShipperNextRunDate\":\"2021-01-09T00:00:00\"},{\"scheduleId\":10,\"description\":\"AUTOSHIP 10\",\"scheduleType\":3,\"dayOfMonth\":10,\"isActive\":\"T\",\"countryId\":1,\"lastRunDate\":\"2021-03-10T05:18:00\",\"autoShipperNextRunDate\":\"2021-01-10T00:00:00\"},{\"scheduleId\":11,\"description\":\"AUTOSHIP 11\",\"scheduleType\":3,\"dayOfMonth\":11,\"isActive\":\"T\",\"countryId\":1,\"lastRunDate\":\"2021-03-11T05:36:47\",\"autoShipperNextRunDate\":\"2021-01-11T00:00:00\"},{\"scheduleId\":12,\"description\":\"AUTOSHIP 12\",\"scheduleType\":3,\"dayOfMonth\":12,\"isActive\":\"T\",\"countryId\":1,\"lastRunDate\":\"2021-02-12T06:14:39\",\"autoShipperNextRunDate\":\"2021-01-12T00:00:00\"},{\"scheduleId\":13,\"description\":\"AUTOSHIP 13\",\"scheduleType\":3,\"dayOfMonth\":13,\"isActive\":\"T\",\"countryId\":1,\"lastRunDate\":\"2021-02-12T06:16:03\",\"autoShipperNextRunDate\":\"2021-01-13T00:00:00\"},{\"scheduleId\":14,\"description\":\"AUTOSHIP 14\",\"scheduleType\":3,\"dayOfMonth\":14,\"isActive\":\"T\",\"countryId\":1,\"lastRunDate\":\"2021-02-17T03:29:57\",\"autoShipperNextRunDate\":\"2021-01-14T00:00:00\"},{\"scheduleId\":15,\"description\":\"AUTOSHIP 15\",\"scheduleType\":3,\"dayOfMonth\":15,\"isActive\":\"T\",\"countryId\":1,\"lastRunDate\":\"2021-03-08T16:52:15\",\"autoShipperNextRunDate\":\"2021-01-15T00:00:00\"},{\"scheduleId\":16,\"description\":\"AUTOSHIP 16\",\"scheduleType\":3,\"dayOfMonth\":16,\"isActive\":\"T\",\"countryId\":1,\"lastRunDate\":\"2021-02-17T03:31:10\",\"autoShipperNextRunDate\":\"2021-01-16T00:00:00\"},{\"scheduleId\":17,\"description\":\"AUTOSHIP 17\",\"scheduleType\":3,\"dayOfMonth\":17,\"isActive\":\"T\",\"countryId\":1,\"lastRunDate\":\"2021-02-17T03:35:50\",\"autoShipperNextRunDate\":\"2020-12-17T00:00:00\"},{\"scheduleId\":18,\"description\":\"AUTOSHIP 18\",\"scheduleType\":3,\"dayOfMonth\":18,\"isActive\":\"T\",\"countryId\":1,\"lastRunDate\":\"2021-02-18T06:09:30\",\"autoShipperNextRunDate\":\"2020-12-18T00:00:00\"},{\"scheduleId\":19,\"description\":\"AUTOSHIP 19\",\"scheduleType\":3,\"dayOfMonth\":19,\"isActive\":\"T\",\"countryId\":1,\"lastRunDate\":\"2021-02-19T05:20:02\",\"autoShipperNextRunDate\":\"2020-12-19T00:00:00\"},{\"scheduleId\":20,\"description\":\"AUTOSHIP 20\",\"scheduleType\":3,\"dayOfMonth\":20,\"isActive\":\"T\",\"countryId\":1,\"lastRunDate\":\"2021-03-01T12:05:20\",\"autoShipperNextRunDate\":\"2020-12-20T00:00:00\"},{\"scheduleId\":21,\"description\":\"AUTOSHIP 21\",\"scheduleType\":3,\"dayOfMonth\":21,\"isActive\":\"T\",\"countryId\":1,\"lastRunDate\":\"2021-02-22T06:37:52\",\"autoShipperNextRunDate\":\"2020-12-21T00:00:00\"},{\"scheduleId\":22,\"description\":\"AUTOSHIP 22\",\"scheduleType\":3,\"dayOfMonth\":22,\"isActive\":\"T\",\"countryId\":1,\"lastRunDate\":\"2021-02-22T06:38:55\",\"autoShipperNextRunDate\":\"2020-12-22T00:00:00\"},{\"scheduleId\":23,\"description\":\"AUTOSHIP 23\",\"scheduleType\":3,\"dayOfMonth\":23,\"isActive\":\"T\",\"countryId\":1,\"lastRunDate\":\"2021-02-23T05:55:13\",\"autoShipperNextRunDate\":\"2020-12-23T00:00:00\"},{\"scheduleId\":24,\"description\":\"AUTOSHIP 24\",\"scheduleType\":3,\"dayOfMonth\":24,\"isActive\":\"T\",\"countryId\":1,\"lastRunDate\":\"2021-02-24T04:17:19\",\"autoShipperNextRunDate\":\"2020-12-24T00:00:00\"},{\"scheduleId\":25,\"description\":\"AUTOSHIP 25\",\"scheduleType\":3,\"dayOfMonth\":25,\"isActive\":\"T\",\"countryId\":1,\"lastRunDate\":\"2021-03-10T14:26:54\",\"autoShipperNextRunDate\":\"2020-12-25T00:00:00\"},{\"scheduleId\":26,\"description\":\"AUTOSHIP 26\",\"scheduleType\":3,\"dayOfMonth\":26,\"isActive\":\"F\",\"countryId\":1,\"lastRunDate\":\"2019-10-23T13:01:08\",\"autoShipperNextRunDate\":\"2020-12-26T00:00:00\"},{\"scheduleId\":27,\"description\":\"AUTOSHIP 27\",\"scheduleType\":3,\"dayOfMonth\":27,\"isActive\":\"F\",\"countryId\":1,\"lastRunDate\":\"2016-11-04T10:40:57\",\"autoShipperNextRunDate\":\"2020-12-27T00:00:00\"},{\"scheduleId\":28,\"description\":\"AUTOSHIP 28\",\"scheduleType\":3,\"dayOfMonth\":28,\"isActive\":\"F\",\"countryId\":1,\"lastRunDate\":\"2018-02-28T07:44:00\",\"autoShipperNextRunDate\":\"2020-12-28T00:00:00\"},{\"scheduleId\":29,\"description\":\"AUTOSHIP 29\",\"scheduleType\":3,\"dayOfMonth\":29,\"isActive\":\"F\",\"countryId\":1,\"lastRunDate\":\"2016-11-04T10:40:57\",\"autoShipperNextRunDate\":\"2020-12-29T00:00:00\"},{\"scheduleId\":30,\"description\":\"AUTOSHIP 30\",\"scheduleType\":3,\"dayOfMonth\":30,\"isActive\":\"F\",\"countryId\":1,\"lastRunDate\":\"2018-07-11T12:35:06\",\"autoShipperNextRunDate\":\"2020-12-30T00:00:00\"},{\"scheduleId\":31,\"description\":\"AUTOSHIP 31\",\"scheduleType\":3,\"dayOfMonth\":31,\"isActive\":\"F\",\"countryId\":1,\"lastRunDate\":\"2018-05-31T09:52:09\",\"autoShipperNextRunDate\":\"2020-12-31T00:00:00\"},{\"scheduleId\":311,\"description\":\"CONSUMER AUTOSHIP 5\",\"scheduleType\":2,\"dayOfMonth\":5,\"isActive\":\"T\",\"countryId\":1,\"lastRunDate\":\"2021-03-05T05:54:09\",\"autoShipperNextRunDate\":\"2021-01-05T00:00:00\"},{\"scheduleId\":312,\"description\":\"CONSUMER AUTOSHIP 10\",\"scheduleType\":2,\"dayOfMonth\":10,\"isActive\":\"T\",\"countryId\":1,\"lastRunDate\":\"2021-03-10T05:19:08\",\"autoShipperNextRunDate\":\"2021-01-10T00:00:00\"},{\"scheduleId\":313,\"description\":\"CONSUMER AUTOSHIP 15\",\"scheduleType\":2,\"dayOfMonth\":15,\"isActive\":\"T\",\"countryId\":1,\"lastRunDate\":\"2021-02-26T06:15:06\",\"autoShipperNextRunDate\":\"2021-01-15T00:00:00\"},{\"scheduleId\":351,\"description\":\"CONSUMER AUTOSHIP 1\",\"scheduleType\":2,\"dayOfMonth\":1,\"isActive\":\"F\",\"countryId\":1,\"lastRunDate\":\"2021-02-05T06:57:38\",\"autoShipperNextRunDate\":\"2021-01-01T00:00:00\"},{\"scheduleId\":352,\"description\":\"CONSUMER AUTOSHIP 2\",\"scheduleType\":2,\"dayOfMonth\":2,\"isActive\":\"F\",\"countryId\":1,\"lastRunDate\":\"2016-11-04T10:40:57\",\"autoShipperNextRunDate\":\"2021-01-02T00:00:00\"},{\"scheduleId\":353,\"description\":\"CONSUMER AUTOSHIP 3\",\"scheduleType\":2,\"dayOfMonth\":3,\"isActive\":\"F\",\"countryId\":1,\"lastRunDate\":\"2016-11-04T10:40:57\",\"autoShipperNextRunDate\":\"2021-01-03T00:00:00\"},{\"scheduleId\":354,\"description\":\"CONSUMER AUTOSHIP 4\",\"scheduleType\":2,\"dayOfMonth\":4,\"isActive\":\"F\",\"countryId\":1,\"lastRunDate\":\"2018-09-04T07:14:05\",\"autoShipperNextRunDate\":\"2021-01-04T00:00:00\"},{\"scheduleId\":356,\"description\":\"CONSUMER AUTOSHIP 6\",\"scheduleType\":2,\"dayOfMonth\":6,\"isActive\":\"F\",\"countryId\":1,\"lastRunDate\":\"2016-06-29T11:31:24\",\"autoShipperNextRunDate\":\"2021-01-06T00:00:00\"},{\"scheduleId\":357,\"description\":\"CONSUMER AUTOSHIP 7\",\"scheduleType\":2,\"dayOfMonth\":7,\"isActive\":\"F\",\"countryId\":1,\"lastRunDate\":\"2018-09-10T07:21:18\",\"autoShipperNextRunDate\":\"2021-01-07T00:00:00\"},{\"scheduleId\":358,\"description\":\"CONSUMER AUTOSHIP 8\",\"scheduleType\":2,\"dayOfMonth\":8,\"isActive\":\"F\",\"countryId\":1,\"lastRunDate\":\"2018-08-08T03:15:03\",\"autoShipperNextRunDate\":\"2021-01-08T00:00:00\"},{\"scheduleId\":359,\"description\":\"CONSUMER AUTOSHIP 9\",\"scheduleType\":2,\"dayOfMonth\":9,\"isActive\":\"F\",\"countryId\":1,\"lastRunDate\":\"2018-08-09T03:15:03\",\"autoShipperNextRunDate\":\"2021-01-09T00:00:00\"},{\"scheduleId\":361,\"description\":\"CONSUMER AUTOSHIP 11\",\"scheduleType\":2,\"dayOfMonth\":11,\"isActive\":\"F\",\"countryId\":1,\"lastRunDate\":\"2018-08-11T03:15:04\",\"autoShipperNextRunDate\":\"2021-01-11T00:00:00\"},{\"scheduleId\":362,\"description\":\"CONSUMER AUTOSHIP 12\",\"scheduleType\":2,\"dayOfMonth\":12,\"isActive\":\"F\",\"countryId\":1,\"lastRunDate\":\"2018-08-12T03:15:04\",\"autoShipperNextRunDate\":\"2021-01-12T00:00:00\"},{\"scheduleId\":363,\"description\":\"CONSUMER AUTOSHIP 13\",\"scheduleType\":2,\"dayOfMonth\":13,\"isActive\":\"F\",\"countryId\":1,\"lastRunDate\":\"2018-08-13T03:15:03\",\"autoShipperNextRunDate\":\"2021-01-13T00:00:00\"},{\"scheduleId\":364,\"description\":\"CONSUMER AUTOSHIP 14\",\"scheduleType\":2,\"dayOfMonth\":14,\"isActive\":\"F\",\"countryId\":1,\"lastRunDate\":\"2018-08-14T03:15:03\",\"autoShipperNextRunDate\":\"2021-01-14T00:00:00\"},{\"scheduleId\":366,\"description\":\"CONSUMER AUTOSHIP 16\",\"scheduleType\":2,\"dayOfMonth\":16,\"isActive\":\"F\",\"countryId\":1,\"lastRunDate\":\"2018-08-16T03:15:03\",\"autoShipperNextRunDate\":\"2021-01-16T00:00:00\"},{\"scheduleId\":367,\"description\":\"CONSUMER AUTOSHIP 17\",\"scheduleType\":2,\"dayOfMonth\":17,\"isActive\":\"F\",\"countryId\":1,\"lastRunDate\":\"2018-08-17T03:15:03\",\"autoShipperNextRunDate\":\"2020-12-17T00:00:00\"},{\"scheduleId\":368,\"description\":\"CONSUMER AUTOSHIP 18\",\"scheduleType\":2,\"dayOfMonth\":18,\"isActive\":\"F\",\"countryId\":1,\"lastRunDate\":\"2018-08-18T03:15:04\",\"autoShipperNextRunDate\":\"2020-12-18T00:00:00\"},{\"scheduleId\":369,\"description\":\"CONSUMER AUTOSHIP 19\",\"scheduleType\":2,\"dayOfMonth\":19,\"isActive\":\"F\",\"countryId\":1,\"lastRunDate\":\"2018-08-19T03:15:04\",\"autoShipperNextRunDate\":\"2020-12-19T00:00:00\"},{\"scheduleId\":370,\"description\":\"CONSUMER AUTOSHIP 20\",\"scheduleType\":2,\"dayOfMonth\":20,\"isActive\":\"F\",\"countryId\":1,\"lastRunDate\":\"2018-08-20T03:15:02\",\"autoShipperNextRunDate\":\"2020-12-20T00:00:00\"},{\"scheduleId\":371,\"description\":\"CONSUMER AUTOSHIP 21\",\"scheduleType\":2,\"dayOfMonth\":21,\"isActive\":\"F\",\"countryId\":1,\"lastRunDate\":\"2018-11-20T07:08:32\",\"autoShipperNextRunDate\":\"2020-12-21T00:00:00\"},{\"scheduleId\":372,\"description\":\"CONSUMER AUTOSHIP 22\",\"scheduleType\":2,\"dayOfMonth\":22,\"isActive\":\"F\",\"countryId\":1,\"lastRunDate\":\"2016-11-04T10:40:57\",\"autoShipperNextRunDate\":\"2020-12-22T00:00:00\"},{\"scheduleId\":373,\"description\":\"CONSUMER AUTOSHIP 23\",\"scheduleType\":2,\"dayOfMonth\":23,\"isActive\":\"F\",\"countryId\":1,\"lastRunDate\":\"2016-11-04T10:40:57\",\"autoShipperNextRunDate\":\"2020-12-23T00:00:00\"},{\"scheduleId\":374,\"description\":\"CONSUMER AUTOSHIP 24\",\"scheduleType\":2,\"dayOfMonth\":24,\"isActive\":\"F\",\"countryId\":1,\"lastRunDate\":\"2016-11-04T10:40:57\",\"autoShipperNextRunDate\":\"2020-12-24T00:00:00\"},{\"scheduleId\":375,\"description\":\"CONSUMER AUTOSHIP 25\",\"scheduleType\":2,\"dayOfMonth\":25,\"isActive\":\"F\",\"countryId\":1,\"lastRunDate\":\"2018-05-29T10:20:59\",\"autoShipperNextRunDate\":\"2020-12-25T00:00:00\"},{\"scheduleId\":451,\"description\":\"PERIODIC CONSUMER AUTOSHIP 5\",\"scheduleType\":2,\"dayOfMonth\":5,\"isActive\":\"T\",\"countryId\":1,\"lastRunDate\":\"2021-03-11T15:34:19\",\"autoShipperNextRunDate\":\"2021-01-05T00:00:00\"},{\"scheduleId\":452,\"description\":\"PERIODIC CONSUMER AUTOSHIP 10\",\"scheduleType\":2,\"dayOfMonth\":10,\"isActive\":\"T\",\"countryId\":1,\"lastRunDate\":\"2021-03-10T05:20:28\",\"autoShipperNextRunDate\":\"2021-01-10T00:00:00\"},{\"scheduleId\":453,\"description\":\"PERIODIC CONSUMER AUTOSHIP 15\",\"scheduleType\":2,\"dayOfMonth\":15,\"isActive\":\"T\",\"countryId\":1,\"lastRunDate\":\"2021-02-26T06:04:54\",\"autoShipperNextRunDate\":\"2021-01-15T00:00:00\"}]}",
    "headers" : {
      "Cache-Control" : "no-cache",
      "Pragma" : "no-cache",
      "Content-Type" : "application/json; charset=utf-8",
      "Expires" : "-1",
      "Vary" : "Accept-Encoding",
      "Server" : "Microsoft-IIS/8.5",
      "X-AspNet-Version" : "4.0.30319",
      "X-Powered-By" : "ASP.NET",
      "Date" : "Tue, 23 Mar 2021 21:59:49 GMT"
    }
  },
  "uuid" : "30ecdab7-2887-44cf-9091-590b882e292b",
  "persistent" : true,
  "insertionIndex" : 198
}