{
  "id" : "94d09a5f-b16b-4957-b5be-a615dc74d075",
  "name" : "businessrulesservice_api_businessrules_country_us_contactinfo",
  "request" : {
    "url" : "/businessRulesService/api/businessRules/country/US/contactInfo",
    "method" : "GET"
  },
  "response" : {
    "status" : 200,
    "body" : "{\"countryId\":1,\"address\":\"2901 W. Bluegrass Blvd<br/> Lehi, Utah 84043\",\"phone1\":\"(801) 769-7800\",\"phone2\":\"(801) 769-7805- Spanish\",\"fax1\":\"(801) 443-3279\",\"fax2\":null,\"email\":\"hotline@synergyworldwide.com\",\"generalManager\":\"Debra Durfey, Director\",\"customerServiceHours\":null,\"corporateStoreHours\":null,\"timeZone\":null,\"mapAddressOverride\":\"\",\"altContact1\":null,\"altContact2\":null,\"altContact3\":null,\"hideCountryImage\":false}",
    "headers" : {
      "Cache-Control" : "no-cache",
      "Pragma" : "no-cache",
      "Content-Type" : "application/json; charset=utf-8",
      "Expires" : "-1",
      "Vary" : "Accept-Encoding",
      "Server" : "Microsoft-IIS/8.5",
      "X-AspNet-Version" : "4.0.30319",
      "X-Powered-By" : "ASP.NET",
      "Date" : "Tue, 23 Mar 2021 21:50:53 GMT"
    }
  },
  "uuid" : "94d09a5f-b16b-4957-b5be-a615dc74d075",
  "persistent" : true,
  "insertionIndex" : 138
}