{
  "id" : "8a51ddec-c115-4bc4-9397-fe69e1bfa916",
  "name" : "itemservice_api_v1_promotions_us_campaigns_discounts",
  "request" : {
    "url" : "/itemService/api/v1/promotions/US/campaigns/discounts",
    "method" : "GET"
  },
  "response" : {
    "status" : 200,
    "body" : "[{\"id\":\"5763aae9-8c58-4e52-90de-24f96b7b5d13\",\"name\":\"LEDGER-TEST\",\"rank\":\"mzzzz\",\"modificationDate\":\"2021-03-31T09:21:03Z\",\"availability\":{\"isEnabled\":true,\"endDate\":\"2021-03-31T09:20:15.035Z\"},\"qualifiers\":{\"qualificationStartDate\":\"2021-03-31T09:20:15.035Z\",\"qualificationEndDate\":\"2021-03-31T09:20:15.035Z\",\"customerTypes\":[1,3],\"orderTypes\":[1,5],\"minimumCV\":200,\"maximumCV\":0,\"purchasePeriodType\":2,\"purchasePeriodValue\":3,\"autoshipTemplateStatus\":1,\"autoshipTemplateMinimumCV\":200,\"autoshipTemplateMaximumCV\":0,\"mustMaintainEligibility\":true,\"offerCode\":\"string\",\"customerGroupsIds\":[]},\"discount\":{\"type\":1,\"value\":15,\"timing\":2,\"timingValue\":4,\"orderTypes\":[1,5]},\"exceptions\":{\"excludedPacks\":[\"string\"],\"cvDeductionPercentage\":0}},{\"id\":\"5763aae9-8c58-4e52-90de-24f96b7b5d14\",\"name\":\"LEDGER-TEST2\",\"rank\":\"mzzzz\",\"modificationDate\":\"2021-03-31T09:21:03Z\",\"availability\":{\"isEnabled\":false,\"endDate\":\"2021-03-31T09:20:15.035Z\"},\"qualifiers\":{\"qualificationStartDate\":\"2021-03-31T09:20:15.035Z\",\"qualificationEndDate\":\"2021-03-31T09:20:15.035Z\",\"customerTypes\":[1],\"orderTypes\":[1],\"minimumCV\":0,\"maximumCV\":0,\"purchasePeriodType\":1,\"purchasePeriodValue\":0,\"autoshipTemplateStatus\":1,\"autoshipTemplateMinimumCV\":0,\"autoshipTemplateMaximumCV\":0,\"mustMaintainEligibility\":true,\"offerCode\":\"string\",\"customerGroupsIds\":[]},\"discount\":{\"type\":1,\"value\":0,\"timing\":1,\"timingValue\":0,\"orderTypes\":[1]},\"exceptions\":{\"excludedPacks\":[\"string\"],\"cvDeductionPercentage\":0}},{\"id\":\"5763aae9-8c58-4e52-90de-24f96b7b5d15\",\"name\":\"LEDGER-TEST3\",\"rank\":\"mzzzz\",\"modificationDate\":\"2021-03-31T09:21:03Z\",\"availability\":{\"isEnabled\":false,\"endDate\":\"2021-03-31T09:20:15.035Z\"},\"qualifiers\":{\"qualificationStartDate\":\"2021-03-31T09:20:15.035Z\",\"qualificationEndDate\":\"2021-03-31T09:20:15.035Z\",\"customerTypes\":[1],\"orderTypes\":[1],\"minimumCV\":0,\"maximumCV\":0,\"purchasePeriodType\":1,\"purchasePeriodValue\":0,\"autoshipTemplateStatus\":1,\"autoshipTemplateMinimumCV\":0,\"autoshipTemplateMaximumCV\":0,\"mustMaintainEligibility\":true,\"offerCode\":\"string\",\"customerGroupsIds\":[]},\"discount\":{\"type\":1,\"value\":0,\"timing\":1,\"timingValue\":0,\"orderTypes\":[1]},\"exceptions\":{\"excludedPacks\":[\"string\"],\"cvDeductionPercentage\":0}}]",
    "headers" : {
      "Server" : "nginx/1.17.10",
      "Date" : "Thu, 01 Apr 2021 21:58:03 GMT",
      "Content-Type" : "application/json; charset=utf-8",
      "Vary" : "Accept-Encoding",
      "Request-Context" : "appId=cid-v1:67d1a82f-4768-484c-9d7c-f9470c397663",
      "Strict-Transport-Security" : "max-age=15724800; includeSubDomains"
    }
  },
  "uuid" : "8a51ddec-c115-4bc4-9397-fe69e1bfa916",
  "persistent" : true,
  "insertionIndex" : 55
}
