{
  "id" : "083e6f72-8c0f-41b1-89eb-28db1f96230d",
  "name" : "ledgerservice_api_ledgerentry_types",
  "request" : {
    "url" : "/ledgerservice/api/ledgerentry/types",
    "method" : "GET"
  },
  "response" : {
    "status" : 200,
    "body" : "{\"types\":[{\"id\":1,\"name\":\"Commission Earning\"},{\"id\":2,\"name\":\"Payment to Order\"},{\"id\":3,\"name\":\"Maintenance Fee\"},{\"id\":4,\"name\":\"VAT Addition to Commission\"},{\"id\":5,\"name\":\"VAT Charge on Maintenance Fee\"},{\"id\":6,\"name\":\"Commission Check\"},{\"id\":7,\"name\":\"EFT/Direct Deposit\"},{\"id\":8,\"name\":\"Fed-Ex Commissions Check\"},{\"id\":9,\"name\":\"Commission Adjustment\"},{\"id\":10,\"name\":\"Promotion Bonus\"},{\"id\":11,\"name\":\"TRANSFER WITH AR\"},{\"id\":12,\"name\":\"Fed Tax Withholding\"},{\"id\":13,\"name\":\"Charity Donation Payment\"},{\"id\":14,\"name\":\"Social Insurance\"},{\"id\":15,\"name\":\"Italy Product Commission\"}]}",
    "headers" : {
      "Cache-Control" : "no-cache",
      "Pragma" : "no-cache",
      "Content-Type" : "application/json; charset=utf-8",
      "Expires" : "-1",
      "Vary" : "Accept-Encoding",
      "Server" : "Microsoft-IIS/8.5",
      "X-AspNet-Version" : "4.0.30319",
      "X-Powered-By" : "ASP.NET",
      "Date" : "Tue, 23 Mar 2021 21:58:27 GMT"
    }
  },
  "uuid" : "083e6f72-8c0f-41b1-89eb-28db1f96230d",
  "persistent" : true,
  "insertionIndex" : 193
}