{
  "id" : "ae6c361f-6d16-410c-a6a4-077b920dae09",
  "name" : "prdservice_api_v1_product_category",
  "request" : {
    "url" : "/prdService/api/v1/product/category",
    "method" : "POST",
    "bodyPatterns" : [ {
      "equalToJson" : "{\"id\":\"17fd41ef-68dd-40b3-9d97-9f3cb0a8958b\",\"country\":\"US\",\"name\":\"Activation Packs\",\"products\":[],\"skus\":[\"SU94491\",\"SU94394\",\"SU94392\",\"SU94090\",\"SU94395\",\"SU94395\",\"SU93111\",\"SU93516\",\"SU72727\",\"SU93151\",\"SU94076\",\"SU94085\"],\"imagePosition\":null,\"imageUrl\":null,\"logoUrl\":null,\"blockClass\":null,\"description\":null}",
      "ignoreArrayOrder" : true,
      "ignoreExtraElements" : true
    } ]
  },
  "response" : {
    "status" : 307,
    "headers" : {
      "Location" : "https://synapitest.nspnet.net/prdService/api/v1/product/category",
      "Server" : "Microsoft-IIS/8.5",
      "Request-Context" : "appId=cid-v1:67d1a82f-4768-484c-9d7c-f9470c397663",
      "X-Powered-By" : "ASP.NET",
      "Date" : "Tue, 23 Mar 2021 21:57:58 GMT"
    }
  },
  "uuid" : "ae6c361f-6d16-410c-a6a4-077b920dae09",
  "persistent" : true,
  "insertionIndex" : 192
}