{
  "id" : "c9429e24-f2d9-45a8-a4c6-737612da9d30",
  "name" : "prdservice_api_v1_product_category_ca_autoship-packs",
  "request" : {
    "url" : "/prdService/api/v1/product/category/ca/Autoship%20Packs",
    "method" : "GET"
  },
  "response" : {
    "status" : 204,
    "headers" : {
      "Cache-Control" : "no-cache",
      "Pragma" : "no-cache",
      "Content-Type" : "application/json; charset=utf-8",
      "Expires" : "-1",
      "Vary" : "Accept-Encoding",
      "Server" : "Microsoft-IIS/8.5",
      "X-AspNet-Version" : "4.0.30319",
      "X-Powered-By" : "ASP.NET",
      "Date" : "Tue, 23 Mar 2021 21:57:40 GMT"
    }
  },
  "uuid" : "c9429e24-f2d9-45a8-a4c6-737612da9d30",
  "persistent" : true,
  "insertionIndex" : 188
}
