{
  "id" : "d838941d-05ab-4aa0-a501-233f3349fff3",
  "name" : "prdservice_api_v1_product_category",
  "request" : {
    "url" : "/prdService/api/v1/product/category",
    "method" : "POST",
    "bodyPatterns" : [ {
      "equalToJson" : "{\"id\":null,\"name\":\"New Category\",\"products\":[\"ProArgi-9+ Immune Booster\"],\"skus\":[\"SU95132\"],\"imagePosition\":\"right\",\"imageUrl\":\"../../../../assets/images/imagenotavailable.png\",\"logoUrl\":\"../../../../assets/images/imagenotavailable.png\",\"country\":\"US\"}",
      "ignoreArrayOrder" : true,
      "ignoreExtraElements" : true
    } ]
  },
  "response" : {
    "status" : 307,
    "headers" : {
      "Location" : "https://synapitest.nspnet.net/prdService/api/v1/product/category",
      "Server" : "Microsoft-IIS/8.5",
      "Request-Context" : "appId=cid-v1:67d1a82f-4768-484c-9d7c-f9470c397663",
      "X-Powered-By" : "ASP.NET",
      "Date" : "Tue, 23 Mar 2021 21:57:23 GMT"
    }
  },
  "uuid" : "d838941d-05ab-4aa0-a501-233f3349fff3",
  "persistent" : true,
  "insertionIndex" : 181
}