{
  "id" : "2df073a8-3650-4e6f-8ff2-d9aef0765fe2",
  "name" : "prdservice_api_v1_product_categories_us",
  "request" : {
    "url" : "/prdService/api/v1/product/categories/us",
    "method" : "GET"
  },
  "response" : {
    "status" : 200,
    "body" : "[{\"id\":\"738770ea-022d-4e8a-b62d-2335327cd2ab\",\"country\":\"us\",\"name\":\"CORE NUTRITION\",\"products\":[\"ProArgi-9+ Immune Booster\",\"Mistica\",\"Liquid Chlorophyll\",\"Body Guard\",\"Detox Plus\",\"Essential Greens\",\"Vitamin D3\",\"VitaZone\",\"Shaker\",\"Core Nutrition Elite Pack\",\"V3 Pack\"],\"skus\":[],\"imagePosition\":\"right\",\"imageUrl\":\"https://res.cloudinary.com/natures-sunshine/image/upload/synergy_remote/img/pa9.png\",\"logoUrl\":\"https://res.cloudinary.com/natures-sunshine/image/upload/synergy_remote/img/corenutrition.png\",\"blockClass\":\"hearthealth\",\"description\":\"Address your dietary nutrition gaps to transform your health and live life optimized.\"},{\"id\":\"9f7f31c5-2265-4055-9444-785b4f8a44fa\",\"country\":\"us\",\"name\":\"Microbiome\",\"products\":[\"Purify Kit\",\"Biome Protect Kit\",\"ProArgi-9+\",\"Biome Actives\",\"Biome DTX\",\"Biome Shake\",\"Body Prime\"],\"skus\":[],\"imagePosition\":\"left\",\"imageUrl\":\"https://res.cloudinary.com/natures-sunshine/image/upload/synergy_remote/img/purify_kits_category.PNG\",\"logoUrl\":\"https://res.cloudinary.com/natures-sunshine/image/upload/synergy_remote/img/proargi9.png\",\"blockClass\":\"proargi9\",\"description\":\"Address your dietary nutrition gaps to transform your health and live life optimized.\"},{\"id\":\"e1f49543-1384-48cb-8034-35b7f0b38f38\",\"country\":\"us\",\"name\":\"Purify\",\"products\":[\"Purify Kit\",\"PURIFY - Buy 4 Get 1 Free\",\"Biome Protect Kit\",\"ProArgi-9+\",\"Biome Actives\",\"Biome DTX\",\"Biome Shake\",\"Body Prime\",\"Shaker\"],\"skus\":[],\"imagePosition\":\"left\",\"imageUrl\":\"https://res.cloudinary.com/natures-sunshine/image/upload/synergy_remote/img/purify_kits_category.PNG\",\"logoUrl\":\"https://res.cloudinary.com/natures-sunshine/image/upload/synergy_remote/img/proargi9.png\",\"blockClass\":\"proargi9\",\"description\":\"Address your dietary nutrition gaps to transform your health and live life optimized.\"},{\"id\":\"bb03b58a-f6e0-48f5-b5d7-a65f85a1dbc4\",\"country\":\"us\",\"name\":\"Purify Kits\",\"products\":[\"Purify Kit\"],\"skus\":[],\"imagePosition\":\"left\",\"imageUrl\":\"https://res.cloudinary.com/natures-sunshine/image/upload/synergy_remote/img/purify_kits_category.PNG\",\"logoUrl\":\"https://res.cloudinary.com/natures-sunshine/image/upload/synergy_remote/img/proargi9.png\",\"blockClass\":\"proargi9\",\"description\":\"Address your dietary nutrition gaps to transform your health and live life optimized.\"},{\"id\":\"2e23c193-b94b-48d3-9e62-692110ea8d55\",\"country\":\"us\",\"name\":\"Heart Health\",\"products\":[\"CoQ10\",\"Metabolic LDL\",\"Omega-3\",\"ProArgi-9+\",\"Shaker\"],\"skus\":[],\"imagePosition\":\"left\",\"imageUrl\":\"http://res.cloudinary.com/natures-sunshine/image/upload/v1605047626/synergy-worldwide/stage/us/categories/us-Main-2e23c193-b94b-48d3-9e62-692110ea8d55.png\",\"logoUrl\":\"http://res.cloudinary.com/natures-sunshine/image/upload/v1605047631/synergy-worldwide/stage/us/categories/us-Logo-2e23c193-b94b-48d3-9e62-692110ea8d55.png\",\"blockClass\":\"hearthealth\",\"description\":\"Address your dietary nutrition gaps to transform your health and live life optimized.\"},{\"id\":\"9658a7f3-f505-4a46-800d-9fe6141aa61e\",\"country\":\"us\",\"name\":\"WEIGHT MANAGEMENT\",\"products\":[\"SLMsmart Health Shake\",\"SLMsmart Body Cleanse\",\"SLMsmart Calorie Burner\",\"SLMsmart Crave Control\",\"Shaker\"],\"skus\":[],\"imagePosition\":\"left\",\"imageUrl\":\"https://res.cloudinary.com/natures-sunshine/image/upload/synergy_remote/img/slmsmart2.png\",\"logoUrl\":\"https://res.cloudinary.com/natures-sunshine/image/upload/synergy_remote/img/weightmgt.png\",\"blockClass\":\"dark weightmgt\",\"description\":\"Achieve your target weight with delicious protein and vitamin-rich meal replacement shakes.\"},{\"id\":\"28eecb44-d4b4-4bf5-ad5f-aedd2954505b\",\"country\":\"us\",\"name\":\"FITNESS\",\"products\":[\"e9\",\"ProArgi-9+ Active\",\"Shaker\"],\"skus\":[],\"imagePosition\":\"right\",\"imageUrl\":\"https://res.cloudinary.com/natures-sunshine/image/upload/v1570570061/synergy-worldwide/stage/us/categories/fitness-Logo-28eecb44-d4b4-4bf5-ad5f-aedd2954505b.png\",\"logoUrl\":\"https://res.cloudinary.com/natures-sunshine/image/upload/v1570570061/synergy-worldwide/stage/us/categories/fitness-Logo-28eecb44-d4b4-4bf5-ad5f-aedd2954505b.png\",\"blockClass\":\"proargi9\",\"description\":\"Discover energy that uses natural caffeine sources to fuel your healthy lifestyle.\"},{\"id\":\"ac93b4dd-667d-412c-a7a6-68672620a5ee\",\"country\":\"us\",\"name\":\"Elemence Body Care\",\"products\":[\"Elemence Summer Special\",\"Elemence Total Body Wash\",\"Elemence Hand & Body Lotion\",\"Elemence Vera Gel\"],\"skus\":[],\"imagePosition\":\"left\",\"imageUrl\":\"https://res.cloudinary.com/natures-sunshine/image/upload/synergy_remote/img/pa9.png\",\"logoUrl\":\"https://res.cloudinary.com/natures-sunshine/image/upload/synergy_remote/img/fitness.png\",\"blockClass\":\"proargi9\",\"description\":\"Discover energy that uses natural caffeine sources to fuel your healthy lifestyle.\"},{\"id\":\"4f9852ad-5ab0-4b66-a75e-6ad4cb722813\",\"country\":\"us\",\"name\":\"SALES TOOLS\",\"products\":[\"Shaker\"],\"skus\":[],\"imagePosition\":\"right\",\"imageUrl\":\"https://res.cloudinary.com/natures-sunshine/image/upload/synergy_remote/img/pa9.png\",\"logoUrl\":\"https://res.cloudinary.com/natures-sunshine/image/upload/synergy_remote/img/fitness.png\",\"blockClass\":\"proargi9\",\"description\":\"Discover energy that uses natural caffeine sources to fuel your healthy lifestyle.\"}]",
    "headers" : {
      "Cache-Control" : "no-cache",
      "Pragma" : "no-cache",
      "Content-Type" : "application/json; charset=utf-8",
      "Expires" : "-1",
      "Vary" : "Accept-Encoding",
      "Server" : "Microsoft-IIS/8.5",
      "X-AspNet-Version" : "4.0.30319",
      "X-Powered-By" : "ASP.NET",
      "Date" : "Tue, 23 Mar 2021 21:56:51 GMT"
    }
  },
  "uuid" : "2df073a8-3650-4e6f-8ff2-d9aef0765fe2",
  "persistent" : true,
  "scenarioName" : "scenario-8-prdService-api-v1-product-categories-us",
  "requiredScenarioState" : "scenario-8-prdService-api-v1-product-categories-us-2",
  "newScenarioState" : "scenario-8-prdService-api-v1-product-categories-us-3",
  "insertionIndex" : 179
}
