{
  "id" : "f9249d5a-bdc7-455e-80e1-c404b2b4fd58",
  "name" : "productsservice_api_products_0",
  "request" : {
    "url" : "/productsService/api/products/0",
    "method" : "PUT",
    "bodyPatterns" : [ {
      "equalToJson" : "{\n  \"id\": 0,\n  \"name\": \"New Product\",\n  \"sizes\": [],\n  \"imagePath\": \"\",\n  \"imageDisplayPath\": \"\",\n  \"country\": \"US\"\n}",
      "ignoreArrayOrder" : true,
      "ignoreExtraElements" : true
    } ]
  },
  "response" : {
    "status" : 200,
    "body" : "{\"id\":2134,\"name\":\"New Product\",\"desc\":null,\"productWallCssClass\":null,\"country\":\"US\",\"imagePath\":\"\",\"thumbPath\":null,\"description\":null,\"isPack\":false,\"displayOrder\":0,\"sizes\":[],\"availability\":[]}",
    "headers" : {
      "Cache-Control" : "no-cache",
      "Pragma" : "no-cache",
      "Content-Type" : "application/json; charset=utf-8",
      "Expires" : "-1",
      "Vary" : "Accept-Encoding",
      "Server" : "Microsoft-IIS/8.5",
      "X-AspNet-Version" : "4.0.30319",
      "X-Powered-By" : "ASP.NET",
      "Date" : "Tue, 23 Mar 2021 21:55:21 GMT"
    }
  },
  "uuid" : "f9249d5a-bdc7-455e-80e1-c404b2b4fd58",
  "persistent" : true,
  "insertionIndex" : 172
}